{
    "results": [
        {
            "popularity": 160,
            "vote_count": 2324,
            "video": false,
            "poster_path": "\/8WUVHemHFH2ZIP6NWkwlHWsyrEL.jpg",
            "id": 338762,
            "adult": false,
            "backdrop_path": "\/ocUrMYbdjknu2TwzMHKT9PBBQRw.jpg",
            "original_language": "en",
            "original_title": "Bloodshot",
            "genre_ids": [
                28,
                18,
                878
            ],
            "title": "Bloodshot",
            "vote_average": 7.1,
            "overview": "After he and his wife are murdered, marine Ray Garrison is resurrected by a team of scientists. Enhanced with nanotechnology, he becomes a superhuman, biotech killing machine—'Bloodshot'. As Ray first trains with fellow super-soldiers, he cannot recall anything from his former life. But when his memories flood back and he remembers the man that killed both him and his wife, he breaks out of the facility to get revenge, only to discover that there's more to the conspiracy than he thought.",
            "release_date": "2020-03-05"
        },
        {
            "popularity": 89.083,
            "vote_count": 418,
            "video": false,
            "poster_path": "\/c01Y4suApJ1Wic2xLmaq1QYcfoZ.jpg",
            "id": 618344,
            "adult": false,
            "backdrop_path": "\/sQkRiQo3nLrQYMXZodDjNUJKHZV.jpg",
            "original_language": "en",
            "original_title": "Justice League Dark: Apokolips War",
            "genre_ids": [
                28,
                12,
                16,
                14,
                878
            ],
            "title": "Justice League Dark: Apokolips War",
            "vote_average": 8.5,
            "overview": "Earth is decimated after intergalactic tyrant Darkseid has devastated the Justice League in a poorly executed war by the DC Super Heroes. Now the remaining bastions of good – the Justice League, Teen Titans, Suicide Squad and assorted others – must regroup, strategize and take the war to Darkseid in order to save the planet and its surviving inhabitants.",
            "release_date": "2020-05-05"
        },
        {
            "popularity": 91.598,
            "vote_count": 1845,
            "video": false,
            "poster_path": "\/f4aul3FyD3jv3v4bul1IrkWZvzq.jpg",
            "id": 508439,
            "adult": false,
            "backdrop_path": "\/xFxk4vnirOtUxpOEWgA1MCRfy6J.jpg",
            "original_language": "en",
            "original_title": "Onward",
            "genre_ids": [
                12,
                16,
                35,
                14,
                10751
            ],
            "title": "Onward",
            "vote_average": 7.9,
            "overview": "In a suburban fantasy world, two teenage elf brothers embark on an extraordinary quest to discover if there is still a little magic left out there.",
            "release_date": "2020-02-29"
        },
        {
            "popularity": 85.911,
            "vote_count": 7408,
            "video": false,
            "poster_path": "\/7IiTTgloJzvGI1TAYymCfbfl3vT.jpg",
            "id": 496243,
            "adult": false,
            "backdrop_path": "\/ApiBzeaa95TNYliSbQ8pJv4Fje7.jpg",
            "original_language": "ko",
            "original_title": "기생충",
            "genre_ids": [
                35,
                18,
                53
            ],
            "title": "Parasite",
            "vote_average": 8.5,
            "overview": "All unemployed, Ki-taek's family takes peculiar interest in the wealthy and glamorous Parks for their livelihood until they get entangled in an unexpected incident.",
            "release_date": "2019-05-30"
        },
        {
            "popularity": 65.844,
            "vote_count": 1118,
            "video": false,
            "poster_path": "\/33VdppGbeNxICrFUtW2WpGHvfYc.jpg",
            "id": 481848,
            "adult": false,
            "backdrop_path": "\/9sXHqZTet3Zg5tgcc0hCDo8Tn35.jpg",
            "original_language": "en",
            "original_title": "The Call of the Wild",
            "genre_ids": [
                12,
                18,
                10751
            ],
            "title": "The Call of the Wild",
            "vote_average": 7.3,
            "overview": "Buck is a big-hearted dog whose blissful domestic life is turned upside down when he is suddenly uprooted from his California home and transplanted to the exotic wilds of the Yukon during the Gold Rush of the 1890s. As the newest rookie on a mail delivery dog sled team—and later its leader—Buck experiences the adventure of a lifetime, ultimately finding his true place in the world and becoming his own master.",
            "release_date": "2020-02-19"
        },
        {
            "popularity": 57.554,
            "vote_count": 3021,
            "video": false,
            "poster_path": "\/8ZX18L5m6rH5viSYpRnTSbb9eXh.jpg",
            "id": 619264,
            "adult": false,
            "backdrop_path": "\/3tkDMNfM2YuIAJlvGO6rfIzAnfG.jpg",
            "original_language": "es",
            "original_title": "El hoyo",
            "genre_ids": [
                18,
                878,
                53
            ],
            "title": "The Platform",
            "vote_average": 7.1,
            "overview": "A mysterious place, an indescribable prison, a deep hole. An unknown number of levels. Two inmates living on each level. A descending platform containing food for all of them. An inhuman fight for survival, but also an opportunity for solidarity…",
            "release_date": "2019-11-08"
        },
        {
            "popularity": 46.423,
            "vote_count": 22,
            "video": false,
            "poster_path": "\/st4n0FALlo0twLkSqxAvU15SKvU.jpg",
            "id": 691812,
            "adult": false,
            "backdrop_path": "\/11E0KVeuV2Eu3luPqoCzSqgdZCN.jpg",
            "original_language": "en",
            "original_title": "Allagash",
            "genre_ids": [
                53
            ],
            "title": "Blood and Money",
            "vote_average": 4.9,
            "overview": "A retired veteran hunting in the Allagash backcountry of Maine discovers a dead woman with a duffle bag full of money. He soon finds himself in a web of deceit and murder.",
            "release_date": "2020-05-15"
        },
        {
            "popularity": 42.935,
            "vote_count": 2,
            "video": false,
            "poster_path": "\/fcNbQWAb9DVsL9U9dX4TYi3Ci9L.jpg",
            "id": 669770,
            "adult": false,
            "backdrop_path": "\/qK6xEaXhawKlVmQwtMO7wtdiU6Z.jpg",
            "original_language": "en",
            "original_title": "Broil",
            "genre_ids": [
                14,
                27,
                53
            ],
            "title": "Broil",
            "vote_average": 6,
            "overview": "Broil follows a dysfunctional family of demons vying to control the future of their wealth.",
            "release_date": "2020-05-20"
        },
        {
            "popularity": 46.891,
            "vote_count": 780,
            "video": false,
            "poster_path": "\/8ZMrZGGW65ePWIgRn1260nA1uUm.jpg",
            "id": 539537,
            "adult": false,
            "backdrop_path": "\/27WkMAcrLJYgmJcgbNvzMh2qw70.jpg",
            "original_language": "en",
            "original_title": "Fantasy Island",
            "genre_ids": [
                14,
                27,
                878
            ],
            "title": "Fantasy Island",
            "vote_average": 6.2,
            "overview": "A group of contest winners arrive at an island hotel to live out their dreams, only to find themselves trapped in nightmare scenarios.",
            "release_date": "2020-02-12"
        },
        {
            "popularity": 38.991,
            "vote_count": 667,
            "video": false,
            "poster_path": "\/wxPhn4ef1EAo5njxwBkAEVrlJJG.jpg",
            "id": 514847,
            "adult": false,
            "backdrop_path": "\/qfQ78ZKiouoM2yhAnfNblp9ijQE.jpg",
            "original_language": "en",
            "original_title": "The Hunt",
            "genre_ids": [
                28,
                27,
                53
            ],
            "title": "The Hunt",
            "vote_average": 6.7,
            "overview": "Twelve strangers wake up in a clearing. They don't know where they are—or how they got there. In the shadow of a dark internet conspiracy theory, ruthless elitists gather at a remote location to hunt humans for sport. But their master plan is about to be derailed when one of the hunted turns the tables on her pursuers.",
            "release_date": "2020-03-11"
        },
        {
            "popularity": 42.995,
            "vote_count": 215,
            "video": false,
            "poster_path": "\/zwgPO5bamUuajIAEc02q9XZ2qhq.jpg",
            "id": 529485,
            "adult": false,
            "backdrop_path": "\/5mubFanEHVFJff4jLQH0uIOThMz.jpg",
            "original_language": "en",
            "original_title": "The Way Back",
            "genre_ids": [
                18
            ],
            "title": "The Way Back",
            "vote_average": 6.7,
            "overview": "A former basketball all-star, who has lost his wife and family foundation in a struggle with addiction attempts to regain his soul and salvation by becoming the coach of a disparate ethnically mixed high school basketball team at his alma mater.",
            "release_date": "2020-03-05"
        },
        {
            "popularity": 39.698,
            "vote_count": 1205,
            "video": false,
            "poster_path": "\/jtrhTYB7xSrJxR1vusu99nvnZ1g.jpg",
            "id": 522627,
            "adult": false,
            "backdrop_path": "\/tintsaQ0WLzZsTMkTiqtMB3rfc8.jpg",
            "original_language": "en",
            "original_title": "The Gentlemen",
            "genre_ids": [
                28,
                35,
                80
            ],
            "title": "The Gentlemen",
            "vote_average": 7.7,
            "overview": "American expat Mickey Pearson has built a highly profitable marijuana empire in London. When word gets out that he’s looking to cash out of the business forever it triggers plots, schemes, bribery and blackmail in an attempt to steal his domain out from under him.",
            "release_date": "2020-01-01"
        },
        {
            "popularity": 37.424,
            "vote_count": 652,
            "video": false,
            "poster_path": "\/7W0G3YECgDAfnuiHG91r8WqgIOe.jpg",
            "id": 446893,
            "adult": false,
            "backdrop_path": "\/qsxhnirlp7y4Ae9bd11oYJSX59j.jpg",
            "original_language": "en",
            "original_title": "Trolls World Tour",
            "genre_ids": [
                12,
                16,
                35,
                14,
                10402,
                10751
            ],
            "title": "Trolls World Tour",
            "vote_average": 7.6,
            "overview": "Queen Poppy and Branch make a surprising discovery — there are other Troll worlds beyond their own, and their distinct differences create big clashes between these various tribes. When a mysterious threat puts all of the Trolls across the land in danger, Poppy, Branch, and their band of friends must embark on an epic quest to create harmony among the feuding Trolls to unite them against certain doom.",
            "release_date": "2020-03-12"
        },
        {
            "popularity": 29.617,
            "vote_count": 1056,
            "video": false,
            "poster_path": "\/gbPfvwBqbiHpQkYZQvVwB6MVauV.jpg",
            "id": 525661,
            "adult": false,
            "backdrop_path": "\/nj84vpuUWdbmYktBzjiWn5Ny1ZF.jpg",
            "original_language": "en",
            "original_title": "Bombshell",
            "genre_ids": [
                18
            ],
            "title": "Bombshell",
            "vote_average": 6.8,
            "overview": "Bombshell is a revealing look inside the most powerful and controversial media empire of all time; and the explosive story of the women who brought down the infamous man who created it.",
            "release_date": "2019-12-13"
        },
        {
            "popularity": 53.566,
            "vote_count": 14237,
            "video": false,
            "poster_path": "\/fnbjcRDYn6YviCcePDnGdyAkYsB.jpg",
            "id": 263115,
            "adult": false,
            "backdrop_path": "\/yEv8c6i79vk06sZDC3Z9D8HQLVV.jpg",
            "original_language": "en",
            "original_title": "Logan",
            "genre_ids": [
                28,
                18,
                878
            ],
            "title": "Logan",
            "vote_average": 7.8,
            "overview": "In the near future, a weary Logan cares for an ailing Professor X in a hideout on the Mexican border. But Logan's attempts to hide from the world and his legacy are upended when a young mutant arrives, pursued by dark forces.",
            "release_date": "2017-02-28"
        },
        {
            "popularity": 33.189,
            "vote_count": 295,
            "video": false,
            "poster_path": "\/n2C6jRK9PtPIs99RQhKtqGlsnsO.jpg",
            "id": 592834,
            "adult": false,
            "backdrop_path": "\/yalJdTsb6EcDX5devj2ltWXuceO.jpg",
            "original_language": "en",
            "original_title": "My Spy",
            "genre_ids": [
                28,
                35,
                10751
            ],
            "title": "My Spy",
            "vote_average": 7.1,
            "overview": "A hardened CIA operative finds himself at the mercy of a precocious 9-year-old girl, having been sent undercover to surveil her family.",
            "release_date": "2020-01-09"
        },
        {
            "popularity": 35.658,
            "vote_count": 282,
            "video": false,
            "poster_path": "\/sm8iVzA7kRp0d4BSIsgXjsSBMKV.jpg",
            "id": 556678,
            "adult": false,
            "backdrop_path": "\/5GbkL9DDRzq3A21nR7Gkv6cFGjq.jpg",
            "original_language": "en",
            "original_title": "Emma.",
            "genre_ids": [
                35,
                18,
                10749
            ],
            "title": "Emma.",
            "vote_average": 6.9,
            "overview": "In 1800s England, a well-meaning but selfish young woman meddles in the love lives of her friends.",
            "release_date": "2020-02-13"
        },
        {
            "popularity": 46.09,
            "vote_count": 296,
            "video": false,
            "poster_path": "\/myf3qzpeN0JbuFRPwSpJcz7rmAT.jpg",
            "id": 458305,
            "adult": false,
            "backdrop_path": "\/jZ4YdDCnfK4cO13do9J4JaT8d2O.jpg",
            "original_language": "en",
            "original_title": "Vivarium",
            "genre_ids": [
                27,
                878,
                53
            ],
            "title": "Vivarium",
            "vote_average": 5.7,
            "overview": "A young woman and her fiancé are in search of the perfect starter home. After following a mysterious real estate agent to a new housing development, the couple finds themselves trapped in a maze of identical houses and forced to raise an otherworldly child.",
            "release_date": "2019-07-12"
        },
        {
            "popularity": 32.064,
            "vote_count": 610,
            "video": false,
            "poster_path": "\/2kNnf7BwRCEm4bcFkdiE0T4U25s.jpg",
            "id": 457335,
            "adult": false,
            "backdrop_path": "\/fssCO59bqU5f0zngeYKex0g1vyb.jpg",
            "original_language": "en",
            "original_title": "Guns Akimbo",
            "genre_ids": [
                28,
                35
            ],
            "title": "Guns Akimbo",
            "vote_average": 6.4,
            "overview": "An ordinary guy suddenly finds himself forced to fight a gladiator-like battle for a dark website that streams the violence for viewers. Miles must fight heavily armed Nix and also save his kidnapped ex-girlfriend.",
            "release_date": "2019-09-09"
        },
        {
            "popularity": 29.628,
            "vote_count": 580,
            "video": false,
            "poster_path": "\/7ht2IMGynDSVQGvAXhAb83DLET8.jpg",
            "id": 565310,
            "adult": false,
            "backdrop_path": "\/qfB3KR6AuRI3Sqz8jWAOpRaGC0H.jpg",
            "original_language": "en",
            "original_title": "The Farewell",
            "genre_ids": [
                35,
                18
            ],
            "title": "The Farewell",
            "vote_average": 7.6,
            "overview": "A headstrong Chinese-American woman returns to China when her beloved grandmother is given a terminal diagnosis. Billi struggles with her family's decision to keep grandma in the dark about her own illness as they all stage an impromptu wedding to see grandma one last time.",
            "release_date": "2019-07-12"
        }
    ],
    "page": 1,
    "total_results": 655,
    "dates": {
        "maximum": "2020-05-26",
        "minimum": "2020-04-08"
    },
    "total_pages": 33
}